%YAML 1.1
%TAG !u! tag:unity3d.com,2011:
--- !u!114 &11400000
MonoBehaviour:
  m_ObjectHideFlags: 0
  m_CorrespondingSourceObject: {fileID: 0}
  m_PrefabInstance: {fileID: 0}
  m_PrefabAsset: {fileID: 0}
  m_GameObject: {fileID: 0}
  m_Enabled: 1
  m_EditorHideFlags: 0
  m_Script: {fileID: 11500000, guid: 5673f7ceacac70749805be5235984732, type: 3}
  m_Name: Pasta
  m_EditorClassIdentifier: 
  icon: {fileID: 21300000, guid: 3194a0eeb3f276543a99fe8339d07cf8, type: 3}
  flavour: {fileID: 11400000, guid: f0e5df445fcb6604fb676a0ab8b19709, type: 2}
  replacements:
  - {fileID: 11400000, guid: 07e57fe0ff625eb49b73f1005a61bc91, type: 2}
